/*
WARNING: Do NOT edit the input and output ports in this file in a text
editor if you plan to continue editing the block that represents it in
the Block Editor! File corruption is VERY likely to occur.
*/
/*
Copyright (C) 1991-2013 Altera Corporation
Your use of Altera Corporation's design tools, logic functions 
and other software and tools, and its AMPP partner logic 
functions, and any output files from any of the foregoing 
(including device programming or simulation files), and any 
associated documentation or information are expressly subject 
to the terms and conditions of the Altera Program License 
Subscription Agreement, Altera MegaCore Function License 
Agreement, or other applicable license agreement, including, 
without limitation, that your use is for the sole purpose of 
programming logic devices manufactured by Altera and sold by 
Altera or its authorized distributors.  Please refer to the 
applicable agreement for further details.
*/
(header "graphic" (version "1.4"))
(pin
	(input)
	(rect 224 320 392 336)
	(text "INPUT" (rect 125 0 153 10)(font "Arial" (font_size 6)))
	(text "X[10..0]" (rect 5 0 42 12)(font "Arial" ))
	(pt 168 8)
	(drawing
		(line (pt 84 12)(pt 109 12))
		(line (pt 84 4)(pt 109 4))
		(line (pt 113 8)(pt 168 8))
		(line (pt 84 12)(pt 84 4))
		(line (pt 109 4)(pt 113 8))
		(line (pt 109 12)(pt 113 8))
	)
	(text "VCC" (rect 128 7 148 17)(font "Arial" (font_size 6)))
)
(pin
	(input)
	(rect -320 400 -152 416)
	(text "INPUT" (rect 125 0 153 10)(font "Arial" (font_size 6)))
	(text "Y[9..0]" (rect 5 0 39 12)(font "Arial" ))
	(pt 168 8)
	(drawing
		(line (pt 84 12)(pt 109 12))
		(line (pt 84 4)(pt 109 4))
		(line (pt 113 8)(pt 168 8))
		(line (pt 84 12)(pt 84 4))
		(line (pt 109 4)(pt 113 8))
		(line (pt 109 12)(pt 113 8))
	)
	(text "VCC" (rect 128 7 148 17)(font "Arial" (font_size 6)))
)
(pin
	(input)
	(rect -264 216 -96 232)
	(text "INPUT" (rect 125 0 153 10)(font "Arial" (font_size 6)))
	(text "clk" (rect 5 0 19 12)(font "Arial" ))
	(pt 168 8)
	(drawing
		(line (pt 84 12)(pt 109 12))
		(line (pt 84 4)(pt 109 4))
		(line (pt 113 8)(pt 168 8))
		(line (pt 84 12)(pt 84 4))
		(line (pt 109 4)(pt 113 8))
		(line (pt 109 12)(pt 113 8))
	)
	(text "VCC" (rect 128 7 148 17)(font "Arial" (font_size 6)))
	(annotation_block (location)(rect -320 240 -264 256))
)
(pin
	(output)
	(rect 1800 312 1976 328)
	(text "OUTPUT" (rect 1 0 39 10)(font "Arial" (font_size 6)))
	(text "r[3..0]" (rect 90 0 119 12)(font "Arial" ))
	(pt 0 8)
	(drawing
		(line (pt 0 8)(pt 52 8))
		(line (pt 52 4)(pt 78 4))
		(line (pt 52 12)(pt 78 12))
		(line (pt 52 12)(pt 52 4))
		(line (pt 78 4)(pt 82 8))
		(line (pt 82 8)(pt 78 12))
		(line (pt 78 12)(pt 82 8))
	)
)
(pin
	(output)
	(rect 1800 456 1976 472)
	(text "OUTPUT" (rect 1 0 39 10)(font "Arial" (font_size 6)))
	(text "g[3..0]" (rect 90 0 121 12)(font "Arial" ))
	(pt 0 8)
	(drawing
		(line (pt 0 8)(pt 52 8))
		(line (pt 52 4)(pt 78 4))
		(line (pt 52 12)(pt 78 12))
		(line (pt 52 12)(pt 52 4))
		(line (pt 78 4)(pt 82 8))
		(line (pt 82 8)(pt 78 12))
		(line (pt 78 12)(pt 82 8))
	)
)
(pin
	(output)
	(rect 1800 600 1976 616)
	(text "OUTPUT" (rect 1 0 39 10)(font "Arial" (font_size 6)))
	(text "b[3..0]" (rect 90 0 121 12)(font "Arial" ))
	(pt 0 8)
	(drawing
		(line (pt 0 8)(pt 52 8))
		(line (pt 52 4)(pt 78 4))
		(line (pt 52 12)(pt 78 12))
		(line (pt 52 12)(pt 52 4))
		(line (pt 78 4)(pt 82 8))
		(line (pt 82 8)(pt 78 12))
		(line (pt 78 12)(pt 82 8))
	)
)
(pin
	(output)
	(rect 1784 672 1960 688)
	(text "OUTPUT" (rect 1 0 39 10)(font "Arial" (font_size 6)))
	(text "enable" (rect 90 0 121 12)(font "Arial" ))
	(pt 0 8)
	(drawing
		(line (pt 0 8)(pt 52 8))
		(line (pt 52 4)(pt 78 4))
		(line (pt 52 12)(pt 78 12))
		(line (pt 52 12)(pt 52 4))
		(line (pt 78 4)(pt 82 8))
		(line (pt 82 8)(pt 78 12))
		(line (pt 78 12)(pt 82 8))
	)
)
(symbol
	(rect 1512 576 1568 632)
	(text "CONSTX" (rect 5 0 48 12)(font "Arial" ))
	(text "inst8" (rect 8 40 31 52)(font "Arial" ))
	(port
		(pt 56 32)
		(output)
		(text "data[size-1..0]" (rect -96 0 -27 12)(font "Arial" ))
		(text "c" (rect 25 27 30 39)(font "Arial" )(invisible))
		(line (pt 56 32)(pt 40 32)(line_width 3))
	)
	(parameter
		"size"
		"4"
		""
		(type "PARAMETER_SIGNED_DEC")	)
	(parameter
		"const"
		"15"
		""
		(type "PARAMETER_SIGNED_DEC")	)
	(drawing
		(rectangle (rect 24 24 40 40)(fill (color 218 218 218)))
	)
	(annotation_block (parameter)(rect 1568 528 1750 570))
)
(symbol
	(rect -32 440 128 512)
	(text "CMPX" (rect 5 0 34 12)(font "Arial" ))
	(text "inst3" (rect 8 56 31 68)(font "Arial" ))
	(port
		(pt 48 0)
		(input)
		(text "A[size-1..0]" (rect 0 0 55 12)(font "Arial" ))
		(text "  A" (rect 40 16 55 28)(font "Arial" ))
		(line (pt 48 0)(pt 48 17)(line_width 3))
	)
	(port
		(pt 104 0)
		(input)
		(text "B[size-1..0]" (rect 0 0 55 12)(font "Arial" ))
		(text "  B" (rect 96 16 110 28)(font "Arial" ))
		(line (pt 104 0)(pt 104 17)(line_width 3))
	)
	(port
		(pt 48 72)
		(output)
		(text "ls" (rect 0 -40 8 -28)(font "Arial" ))
		(text "A<B" (rect 40 40 60 52)(font "Arial" ))
		(line (pt 48 72)(pt 48 56))
	)
	(port
		(pt 80 72)
		(output)
		(text "eq" (rect 0 -40 11 -28)(font "Arial" ))
		(text "A=B" (rect 72 40 92 52)(font "Arial" ))
		(line (pt 80 72)(pt 80 56))
	)
	(port
		(pt 112 72)
		(output)
		(text "gr" (rect 0 -40 9 -28)(font "Arial" ))
		(text "A>B" (rect 104 40 124 52)(font "Arial" ))
		(line (pt 112 72)(pt 112 56))
	)
	(parameter
		"size"
		"10"
		""
		(type "PARAMETER_SIGNED_DEC")	)
	(drawing
		(text " CMP" (rect 64 24 97 38)(font "Arial" (color 0 0 0)(font_size 8)(bold)))
		(rectangle (rect 16 16 136 56))
	)
	(annotation_block (parameter)(rect 128 408 310 436))
)
(symbol
	(rect -64 328 -8 384)
	(text "CONSTX" (rect 5 0 48 12)(font "Arial" ))
	(text "inst4" (rect 8 40 31 52)(font "Arial" ))
	(port
		(pt 56 32)
		(output)
		(text "data[size-1..0]" (rect -96 0 -27 12)(font "Arial" ))
		(text "c" (rect 25 27 30 39)(font "Arial" )(invisible))
		(line (pt 56 32)(pt 40 32)(line_width 3))
	)
	(parameter
		"size"
		"10"
		""
		(type "PARAMETER_SIGNED_DEC")	)
	(parameter
		"const"
		"300"
		""
		(type "PARAMETER_SIGNED_DEC")	)
	(drawing
		(rectangle (rect 24 24 40 40)(fill (color 218 218 218)))
	)
	(annotation_block (parameter)(rect -16 256 166 298))
)
(symbol
	(rect 456 352 616 424)
	(text "CMPX" (rect 5 0 34 12)(font "Arial" ))
	(text "inst" (rect 8 56 25 68)(font "Arial" ))
	(port
		(pt 48 0)
		(input)
		(text "A[size-1..0]" (rect 0 0 55 12)(font "Arial" ))
		(text "  A" (rect 40 16 55 28)(font "Arial" ))
		(line (pt 48 0)(pt 48 17)(line_width 3))
	)
	(port
		(pt 104 0)
		(input)
		(text "B[size-1..0]" (rect 0 0 55 12)(font "Arial" ))
		(text "  B" (rect 96 16 110 28)(font "Arial" ))
		(line (pt 104 0)(pt 104 17)(line_width 3))
	)
	(port
		(pt 48 72)
		(output)
		(text "ls" (rect 0 -40 8 -28)(font "Arial" ))
		(text "A<B" (rect 40 40 60 52)(font "Arial" ))
		(line (pt 48 72)(pt 48 56))
	)
	(port
		(pt 80 72)
		(output)
		(text "eq" (rect 0 -40 11 -28)(font "Arial" ))
		(text "A=B" (rect 72 40 92 52)(font "Arial" ))
		(line (pt 80 72)(pt 80 56))
	)
	(port
		(pt 112 72)
		(output)
		(text "gr" (rect 0 -40 9 -28)(font "Arial" ))
		(text "A>B" (rect 104 40 124 52)(font "Arial" ))
		(line (pt 112 72)(pt 112 56))
	)
	(parameter
		"size"
		"11"
		""
		(type "PARAMETER_SIGNED_DEC")	)
	(drawing
		(text " CMP" (rect 64 24 97 38)(font "Arial" (color 0 0 0)(font_size 8)(bold)))
		(rectangle (rect 16 16 136 56))
	)
	(annotation_block (parameter)(rect 616 320 798 348))
)
(symbol
	(rect 376 200 608 280)
	(text "REGX" (rect 5 0 34 12)(font "Arial" ))
	(text "inst1" (rect 8 64 31 76)(font "Arial" ))
	(port
		(pt 0 24)
		(input)
		(text "clk" (rect 0 0 14 12)(font "Arial" ))
		(text "clk" (rect 21 19 35 31)(font "Arial" ))
		(line (pt 0 24)(pt 16 24))
	)
	(port
		(pt 0 40)
		(input)
		(text "ld" (rect 0 0 8 12)(font "Arial" ))
		(text "ld" (rect 21 35 29 47)(font "Arial" ))
		(line (pt 0 40)(pt 16 40))
	)
	(port
		(pt 0 56)
		(input)
		(text "cl" (rect 0 0 8 12)(font "Arial" ))
		(text "cl" (rect 21 51 29 63)(font "Arial" ))
		(line (pt 0 56)(pt 16 56))
	)
	(port
		(pt 232 32)
		(input)
		(text "inc" (rect 0 0 14 12)(font "Arial" ))
		(text "inc" (rect 193 24 207 36)(font "Arial" ))
		(line (pt 216 32)(pt 232 32))
	)
	(port
		(pt 232 48)
		(input)
		(text "dec" (rect 0 0 17 12)(font "Arial" ))
		(text "dec" (rect 190 40 207 52)(font "Arial" ))
		(line (pt 216 48)(pt 232 48))
	)
	(port
		(pt 112 0)
		(input)
		(text "data_in[size-1..0]" (rect 0 0 83 12)(font "Arial" ))
		(text "DIN" (rect 104 16 124 28)(font "Arial" ))
		(line (pt 112 0)(pt 112 16)(line_width 3))
	)
	(port
		(pt 112 80)
		(output)
		(text "data_out[size-1..0]" (rect 0 -64 90 -52)(font "Arial" ))
		(text "  DOUT" (rect 96 48 133 60)(font "Arial" ))
		(line (pt 112 80)(pt 112 64)(line_width 3))
	)
	(parameter
		"size"
		"11"
		""
		(type "PARAMETER_SIGNED_DEC")	)
	(parameter
		"default_value"
		"0"
		""
		(type "PARAMETER_SIGNED_DEC")	)
	(drawing
		(text "REGISTAR" (rect 88 32 150 46)(font "Arial" (color 0 0 0)(font_size 8)(bold)))
		(rectangle (rect 16 16 216 64))
	)
	(annotation_block (parameter)(rect 608 152 805 194))
)
(symbol
	(rect 1512 288 1568 344)
	(text "CONSTX" (rect 5 0 48 12)(font "Arial" ))
	(text "inst7" (rect 8 40 31 52)(font "Arial" ))
	(port
		(pt 56 32)
		(output)
		(text "data[size-1..0]" (rect -96 0 -27 12)(font "Arial" ))
		(text "c" (rect 25 27 30 39)(font "Arial" )(invisible))
		(line (pt 56 32)(pt 40 32)(line_width 3))
	)
	(parameter
		"size"
		"4"
		""
		(type "PARAMETER_SIGNED_DEC")	)
	(parameter
		"const"
		"0"
		""
		(type "PARAMETER_SIGNED_DEC")	)
	(drawing
		(rectangle (rect 24 24 40 40)(fill (color 218 218 218)))
	)
	(annotation_block (parameter)(rect 1568 240 1750 282))
)
(symbol
	(rect 1512 432 1568 488)
	(text "CONSTX" (rect 5 0 48 12)(font "Arial" ))
	(text "inst5" (rect 8 40 31 52)(font "Arial" ))
	(port
		(pt 56 32)
		(output)
		(text "data[size-1..0]" (rect -96 0 -27 12)(font "Arial" ))
		(text "c" (rect 25 27 30 39)(font "Arial" )(invisible))
		(line (pt 56 32)(pt 40 32)(line_width 3))
	)
	(parameter
		"size"
		"4"
		""
		(type "PARAMETER_SIGNED_DEC")	)
	(parameter
		"const"
		"0"
		""
		(type "PARAMETER_SIGNED_DEC")	)
	(drawing
		(rectangle (rect 24 24 40 40)(fill (color 218 218 218)))
	)
	(annotation_block (parameter)(rect 1568 384 1750 426))
)
(symbol
	(rect 80 664 240 736)
	(text "CMPX" (rect 5 0 34 12)(font "Arial" ))
	(text "inst10" (rect 8 56 37 68)(font "Arial" ))
	(port
		(pt 48 0)
		(input)
		(text "A[size-1..0]" (rect 0 0 55 12)(font "Arial" ))
		(text "  A" (rect 40 16 55 28)(font "Arial" ))
		(line (pt 48 0)(pt 48 17)(line_width 3))
	)
	(port
		(pt 104 0)
		(input)
		(text "B[size-1..0]" (rect 0 0 55 12)(font "Arial" ))
		(text "  B" (rect 96 16 110 28)(font "Arial" ))
		(line (pt 104 0)(pt 104 17)(line_width 3))
	)
	(port
		(pt 48 72)
		(output)
		(text "ls" (rect 0 -40 8 -28)(font "Arial" ))
		(text "A<B" (rect 40 40 60 52)(font "Arial" ))
		(line (pt 48 72)(pt 48 56))
	)
	(port
		(pt 80 72)
		(output)
		(text "eq" (rect 0 -40 11 -28)(font "Arial" ))
		(text "A=B" (rect 72 40 92 52)(font "Arial" ))
		(line (pt 80 72)(pt 80 56))
	)
	(port
		(pt 112 72)
		(output)
		(text "gr" (rect 0 -40 9 -28)(font "Arial" ))
		(text "A>B" (rect 104 40 124 52)(font "Arial" ))
		(line (pt 112 72)(pt 112 56))
	)
	(parameter
		"size"
		"11"
		""
		(type "PARAMETER_SIGNED_DEC")	)
	(drawing
		(text " CMP" (rect 64 24 97 38)(font "Arial" (color 0 0 0)(font_size 8)(bold)))
		(rectangle (rect 16 16 136 56))
	)
	(annotation_block (parameter)(rect 240 632 422 660))
)
(symbol
	(rect 512 576 672 648)
	(text "CMPX" (rect 5 0 34 12)(font "Arial" ))
	(text "inst13" (rect 8 56 37 68)(font "Arial" ))
	(port
		(pt 48 0)
		(input)
		(text "A[size-1..0]" (rect 0 0 55 12)(font "Arial" ))
		(text "  A" (rect 40 16 55 28)(font "Arial" ))
		(line (pt 48 0)(pt 48 17)(line_width 3))
	)
	(port
		(pt 104 0)
		(input)
		(text "B[size-1..0]" (rect 0 0 55 12)(font "Arial" ))
		(text "  B" (rect 96 16 110 28)(font "Arial" ))
		(line (pt 104 0)(pt 104 17)(line_width 3))
	)
	(port
		(pt 48 72)
		(output)
		(text "ls" (rect 0 -40 8 -28)(font "Arial" ))
		(text "A<B" (rect 40 40 60 52)(font "Arial" ))
		(line (pt 48 72)(pt 48 56))
	)
	(port
		(pt 80 72)
		(output)
		(text "eq" (rect 0 -40 11 -28)(font "Arial" ))
		(text "A=B" (rect 72 40 92 52)(font "Arial" ))
		(line (pt 80 72)(pt 80 56))
	)
	(port
		(pt 112 72)
		(output)
		(text "gr" (rect 0 -40 9 -28)(font "Arial" ))
		(text "A>B" (rect 104 40 124 52)(font "Arial" ))
		(line (pt 112 72)(pt 112 56))
	)
	(parameter
		"size"
		"11"
		""
		(type "PARAMETER_SIGNED_DEC")	)
	(drawing
		(text " CMP" (rect 64 24 97 38)(font "Arial" (color 0 0 0)(font_size 8)(bold)))
		(rectangle (rect 16 16 136 56))
	)
	(annotation_block (parameter)(rect 672 544 854 572))
)
(symbol
	(rect 560 464 616 520)
	(text "CONSTX" (rect 5 0 48 12)(font "Arial" ))
	(text "inst9" (rect 8 40 31 52)(font "Arial" ))
	(port
		(pt 56 32)
		(output)
		(text "data[size-1..0]" (rect -96 0 -27 12)(font "Arial" ))
		(text "c" (rect 25 27 30 39)(font "Arial" )(invisible))
		(line (pt 56 32)(pt 40 32)(line_width 3))
	)
	(parameter
		"size"
		"11"
		""
		(type "PARAMETER_SIGNED_DEC")	)
	(parameter
		"const"
		"300"
		""
		(type "PARAMETER_SIGNED_DEC")	)
	(drawing
		(rectangle (rect 24 24 40 40)(fill (color 218 218 218)))
	)
	(annotation_block (parameter)(rect 616 416 798 458))
)
(symbol
	(rect 1632 656 1696 704)
	(text "AND2" (rect 1 0 25 10)(font "Arial" (font_size 6)))
	(text "inst14" (rect 3 37 32 49)(font "Arial" ))
	(port
		(pt 0 16)
		(input)
		(text "IN1" (rect 2 7 19 19)(font "Courier New" (bold))(invisible))
		(text "IN1" (rect 2 7 19 19)(font "Courier New" (bold))(invisible))
		(line (pt 0 16)(pt 14 16))
	)
	(port
		(pt 0 32)
		(input)
		(text "IN2" (rect 2 23 19 35)(font "Courier New" (bold))(invisible))
		(text "IN2" (rect 2 23 19 35)(font "Courier New" (bold))(invisible))
		(line (pt 0 32)(pt 14 32))
	)
	(port
		(pt 64 24)
		(output)
		(text "OUT" (rect 48 15 65 27)(font "Courier New" (bold))(invisible))
		(text "OUT" (rect 48 15 65 27)(font "Courier New" (bold))(invisible))
		(line (pt 42 24)(pt 64 24))
	)
	(drawing
		(line (pt 14 12)(pt 30 12))
		(line (pt 14 37)(pt 31 37))
		(line (pt 14 12)(pt 14 37))
		(arc (pt 31 37)(pt 30 12)(rect 18 12 43 37))
	)
)
(symbol
	(rect 128 552 184 608)
	(text "CONSTX" (rect 5 0 48 12)(font "Arial" ))
	(text "inst6" (rect 8 40 31 52)(font "Arial" ))
	(port
		(pt 56 32)
		(output)
		(text "data[size-1..0]" (rect -96 0 -27 12)(font "Arial" ))
		(text "c" (rect 25 27 30 39)(font "Arial" )(invisible))
		(line (pt 56 32)(pt 40 32)(line_width 3))
	)
	(parameter
		"size"
		"11"
		""
		(type "PARAMETER_SIGNED_DEC")	)
	(parameter
		"const"
		"1039"
		""
		(type "PARAMETER_SIGNED_DEC")	)
	(drawing
		(rectangle (rect 24 24 40 40)(fill (color 218 218 218)))
	)
	(annotation_block (parameter)(rect 224 536 406 578))
)
(symbol
	(rect -336 560 -176 632)
	(text "CMPX" (rect 5 0 34 12)(font "Arial" ))
	(text "inst15" (rect 8 56 37 68)(font "Arial" ))
	(port
		(pt 48 0)
		(input)
		(text "A[size-1..0]" (rect 0 0 55 12)(font "Arial" ))
		(text "  A" (rect 40 16 55 28)(font "Arial" ))
		(line (pt 48 0)(pt 48 17)(line_width 3))
	)
	(port
		(pt 104 0)
		(input)
		(text "B[size-1..0]" (rect 0 0 55 12)(font "Arial" ))
		(text "  B" (rect 96 16 110 28)(font "Arial" ))
		(line (pt 104 0)(pt 104 17)(line_width 3))
	)
	(port
		(pt 48 72)
		(output)
		(text "ls" (rect 0 -40 8 -28)(font "Arial" ))
		(text "A<B" (rect 40 40 60 52)(font "Arial" ))
		(line (pt 48 72)(pt 48 56))
	)
	(port
		(pt 80 72)
		(output)
		(text "eq" (rect 0 -40 11 -28)(font "Arial" ))
		(text "A=B" (rect 72 40 92 52)(font "Arial" ))
		(line (pt 80 72)(pt 80 56))
	)
	(port
		(pt 112 72)
		(output)
		(text "gr" (rect 0 -40 9 -28)(font "Arial" ))
		(text "A>B" (rect 104 40 124 52)(font "Arial" ))
		(line (pt 112 72)(pt 112 56))
	)
	(parameter
		"size"
		"10"
		""
		(type "PARAMETER_SIGNED_DEC")	)
	(drawing
		(text " CMP" (rect 64 24 97 38)(font "Arial" (color 0 0 0)(font_size 8)(bold)))
		(rectangle (rect 16 16 136 56))
	)
	(annotation_block (parameter)(rect -152 600 30 628))
)
(symbol
	(rect 736 208 800 256)
	(text "AND3" (rect 39 38 63 48)(font "Arial" (font_size 6)))
	(text "inst17" (rect 32 -1 61 11)(font "Arial" ))
	(port
		(pt 64 32)
		(input)
		(text "IN1" (rect 2 7 19 19)(font "Courier New" (bold))(invisible))
		(text "IN1" (rect 45 29 62 41)(font "Courier New" (bold))(invisible))
		(line (pt 64 32)(pt 48 32))
	)
	(port
		(pt 64 24)
		(input)
		(text "IN2" (rect 2 15 19 27)(font "Courier New" (bold))(invisible))
		(text "IN2" (rect 45 21 62 33)(font "Courier New" (bold))(invisible))
		(line (pt 64 24)(pt 48 24))
	)
	(port
		(pt 64 16)
		(input)
		(text "IN3" (rect 2 23 19 35)(font "Courier New" (bold))(invisible))
		(text "IN3" (rect 45 13 62 25)(font "Courier New" (bold))(invisible))
		(line (pt 64 16)(pt 48 16))
	)
	(port
		(pt 0 24)
		(output)
		(text "OUT" (rect 48 15 65 27)(font "Courier New" (bold))(invisible))
		(text "OUT" (rect -1 21 16 33)(font "Courier New" (bold))(invisible))
		(line (pt 21 24)(pt 0 24))
	)
	(drawing
		(line (pt 48 36)(pt 33 36))
		(line (pt 48 11)(pt 33 11))
		(line (pt 48 36)(pt 48 11))
		(arc (pt 33 12)(pt 33 36)(rect 20 11 45 36))
	)
	(rotate180)
)
(symbol
	(rect 848 264 912 312)
	(text "AND3" (rect 39 38 63 48)(font "Arial" (font_size 6)))
	(text "inst18" (rect 32 -1 61 11)(font "Arial" ))
	(port
		(pt 64 32)
		(input)
		(text "IN1" (rect 2 7 19 19)(font "Courier New" (bold))(invisible))
		(text "IN1" (rect 45 29 62 41)(font "Courier New" (bold))(invisible))
		(line (pt 64 32)(pt 48 32))
	)
	(port
		(pt 64 24)
		(input)
		(text "IN2" (rect 2 15 19 27)(font "Courier New" (bold))(invisible))
		(text "IN2" (rect 45 21 62 33)(font "Courier New" (bold))(invisible))
		(line (pt 64 24)(pt 48 24))
	)
	(port
		(pt 64 16)
		(input)
		(text "IN3" (rect 2 23 19 35)(font "Courier New" (bold))(invisible))
		(text "IN3" (rect 45 13 62 25)(font "Courier New" (bold))(invisible))
		(line (pt 64 16)(pt 48 16))
	)
	(port
		(pt 0 24)
		(output)
		(text "OUT" (rect 48 15 65 27)(font "Courier New" (bold))(invisible))
		(text "OUT" (rect -1 21 16 33)(font "Courier New" (bold))(invisible))
		(line (pt 21 24)(pt 0 24))
	)
	(drawing
		(line (pt 48 36)(pt 33 36))
		(line (pt 48 11)(pt 33 11))
		(line (pt 48 36)(pt 48 11))
		(arc (pt 33 12)(pt 33 36)(rect 20 11 45 36))
	)
	(rotate180)
)
(symbol
	(rect -200 496 -144 552)
	(text "CONSTX" (rect 8 44 51 56)(font "Arial" ))
	(text "inst16" (rect 19 4 48 16)(font "Arial" ))
	(port
		(pt 0 24)
		(output)
		(text "data[size-1..0]" (rect -96 0 -27 12)(font "Arial" ))
		(text "c" (rect 26 17 31 29)(font "Arial" )(invisible))
		(line (pt 0 24)(pt 16 24)(line_width 3))
	)
	(parameter
		"size"
		"10"
		""
		(type "PARAMETER_SIGNED_DEC")	)
	(parameter
		"const"
		"600"
		""
		(type "PARAMETER_SIGNED_DEC")	)
	(drawing
		(rectangle (rect 16 16 32 32)(fill (color 218 218 218)))
	)
	(rotate180)
	(annotation_block (parameter)(rect -224 456 -42 498))
)
(connector
	(pt 488 280)
	(pt 488 304)
	(bus)
)
(connector
	(pt 488 304)
	(pt 560 304)
	(bus)
)
(connector
	(pt 560 304)
	(pt 560 352)
	(bus)
)
(connector
	(pt 392 328)
	(pt 504 328)
	(bus)
)
(connector
	(pt 504 328)
	(pt 504 352)
	(bus)
)
(connector
	(pt 1568 320)
	(pt 1800 320)
	(bus)
)
(connector
	(pt 1568 464)
	(pt 1800 464)
	(bus)
)
(connector
	(pt 1568 608)
	(pt 1800 608)
	(bus)
)
(connector
	(pt 504 464)
	(pt 496 464)
)
(connector
	(text "plava" (rect 488 425 500 452)(font "Arial" )(vertical))
	(pt 504 424)
	(pt 504 464)
)
(connector
	(pt -96 224)
	(pt 376 224)
)
(connector
	(text "<<__$DEF_ALIAS9056>>" (rect 618 216 741 228)(font "Arial" )(invisible))
	(pt 736 232)
	(pt 608 232)
)
(connector
	(text "<<__$DEF_ALIAS9060>>" (rect 616 232 739 244)(font "Arial" )(invisible))
	(pt 672 248)
	(pt 608 248)
)
(connector
	(pt 672 248)
	(pt 672 288)
)
(connector
	(pt 672 288)
	(pt 848 288)
)
(connector
	(text "l" (rect 920 264 922 276)(font "Arial" ))
	(pt 912 280)
	(pt 936 280)
)
(connector
	(pt 936 296)
	(pt 936 304)
)
(connector
	(text "ld" (rect 920 280 928 292)(font "Arial" ))
	(pt 912 296)
	(pt 936 296)
)
(connector
	(text "X[10..0]" (rect 544 528 556 565)(font "Arial" )(vertical))
	(pt 560 576)
	(pt 560 552)
	(bus)
)
(connector
	(pt 616 496)
	(pt 616 576)
	(bus)
)
(connector
	(text "e" (rect 544 659 556 664)(font "Arial" )(vertical))
	(pt 560 648)
	(pt 560 680)
)
(connector
	(text "e" (rect 1600 656 1605 668)(font "Arial" ))
	(pt 1632 672)
	(pt 1592 672)
)
(connector
	(text "plava" (rect 1618 672 1645 684)(font "Arial" ))
	(pt 1632 688)
	(pt 1592 688)
)
(connector
	(pt 1696 680)
	(pt 1784 680)
)
(connector
	(pt -288 456)
	(pt -288 560)
	(bus)
)
(connector
	(pt -136 456)
	(pt -288 456)
	(bus)
)
(connector
	(pt -136 456)
	(pt -136 408)
	(bus)
)
(connector
	(pt -200 520)
	(pt -232 520)
	(bus)
)
(connector
	(pt -232 520)
	(pt -232 560)
	(bus)
)
(connector
	(pt -288 672)
	(pt -296 672)
)
(connector
	(text "spas" (rect -304 636 -292 659)(font "Arial" )(vertical))
	(pt -288 632)
	(pt -288 672)
)
(connector
	(text "m" (rect 808 208 817 220)(font "Arial" ))
	(pt 800 224)
	(pt 824 224)
)
(connector
	(text "ld" (rect 809 224 817 236)(font "Arial" ))
	(pt 800 240)
	(pt 824 240)
)
(connector
	(text "spas" (rect 808 216 831 228)(font "Arial" ))
	(pt 800 232)
	(pt 864 232)
)
(connector
	(text "spas" (rect 920 272 943 284)(font "Arial" ))
	(pt 912 288)
	(pt 976 288)
)
(connector
	(text "cl" (rect -272 649 -260 657)(font "Arial" )(vertical))
	(pt -256 632)
	(pt -256 672)
)
(connector
	(text "cl" (rect 360 240 368 252)(font "Arial" ))
	(pt 376 256)
	(pt 352 256)
)
(connector
	(pt -8 360)
	(pt 72 360)
	(bus)
)
(connector
	(pt 72 360)
	(pt 72 440)
	(bus)
)
(connector
	(text "m" (rect 0 520 12 529)(font "Arial" )(vertical))
	(pt 16 512)
	(pt 16 544)
)
(connector
	(text "l" (rect 64 526 76 528)(font "Arial" )(vertical))
	(pt 80 512)
	(pt 80 544)
)
(connector
	(pt 16 408)
	(pt 16 440)
	(bus)
)
(connector
	(pt -152 408)
	(pt -136 408)
	(bus)
)
(connector
	(pt -136 408)
	(pt 16 408)
	(bus)
)
(connector
	(pt 88 608)
	(pt 128 608)
	(bus)
)
(connector
	(text "X[10..0]" (rect 112 616 124 653)(font "Arial" )(vertical))
	(pt 128 608)
	(pt 128 664)
	(bus)
)
(connector
	(pt 184 584)
	(pt 184 664)
	(bus)
)
(connector
	(text "ld" (rect 144 777 156 785)(font "Arial" )(vertical))
	(pt 160 736)
	(pt 160 800)
)
(junction (pt -136 408))
